Measures of Dispersion
…
The Yaounde COVID-19 dataset

In this lesson, we will again use the data from the COVID-19 serological survey conducted in Yaounde, Cameroon.

yaounde <- read_csv(here::here('data/yaounde_data.csv'))

# A smaller subset of numeric variables
yao <- yaounde %>% 
  filter(age_category_3 != "Child") %>% 
  select(age, sex, weight_kg, height_cm)
yao

# A tibble: 680 × 4
     age sex    weight_kg height_cm
   <dbl> <chr>      <dbl>     <dbl>
 1    45 Female        95       169
 2    55 Male          96       185
 3    23 Male          74       180
 4    20 Female        70       164
 5    55 Female        67       147
 6    28 Male          62       173
 7    30 Male          73       170
 8    62 Female        53       157
 9    34 Female        78       164
10    38 Female        58       169
# ℹ 670 more rows
…
